…
#### They have many mutual friends(co-authors). This might because these scholars are interested in the same field and they would like to work together.

#### 3\) Did the two scholars once publish a paper together? If yes, please print the related information of that paper.

``` r
b <- c("banerjee")
d <- c("duflo")  
 df <- mutate(ab_citation_df, coauthor = tolower(ab_citation_df$researcher)) %>% 
  unnest(cols = c(coauthor)) 
 
co_paper <- data_frame(paper = df$paperName[grepl(b,df$coauthor) & grepl(d,df$coauthor)], author = df$coauthor[grepl(b,df$coauthor) & grepl(d,df$coauthor)])
co_paper
```

    ## # A tibble: 186 x 2
    ##    paper                                      author                       
    ##    <fct>                                      <chr>                        
    ##  1 Poor economics: A radical rethinking of t… av banerjee, a banerjee, e d…
    ##  2 The miracle of microfinance? Evidence fro… a banerjee, e duflo, r glenn…
    ##  3 The economic lives of the poor             av banerjee, e duflo         
    ##  4 Inequality and growth: What can the data … av banerjee, e duflo         
    ##  5 Remedying education: Evidence from two ra… av banerjee, s cole, e duflo…
    ##  6 Growth theory through the lens of develop… av banerjee, e duflo         
    ##  7 The diffusion of microfinance              a banerjee, ag chandrasekhar…
    ##  8 What is middle class about the middle cla… av banerjee, e duflo         
    ##  9 Do firms want to borrow more? Testing cre… av banerjee, e duflo         
    ## 10 Reputation effects and the limits of cont… av banerjee, e duflo         
    ## # … with 176 more rows
…
